Appendix for comment on Nianogo et al.
…
tib_diff_eff_by_state_year_mc_nnm=gsynth_out_overall_sub_pol_mc_nnm$eff %>% 
  as_tibble() %>% #Convert to tibble
  mutate(year=row_number()+1999)  %>% #Add 1999 to row number to calculate year
  dplyr::select(year,everything()) %>% 
  pivot_longer(cols=-year) %>%  #make the dataset long-form
  #Rename some of the columns
  rename(
    state_id = name,
    diff_pt = value #estimated difference effect
    ) %>% 
  mutate(state_id=as.numeric(state_id)) #make sure state_id is numeric

tib_diff_eff_by_state_year_mc_nnm

## # A tibble: 680 × 3
##     year state_id diff_pt
##    <dbl>    <dbl>   <dbl>
##  1  2000        2  -2.85 
##  2  2000        4   0.925
##  3  2000        5  -6.56 
##  4  2000        6  -6.39 
##  5  2000        8  -2.96 
##  6  2000        9   5.02 
##  7  2000       10  -1.82 
##  8  2000       15   8.08 
##  9  2000       17   1.93 
## 10  2000       18   2.32 
## # ℹ 670 more rows
…
(The letter D is conventionally used in the econometrics literature to denote the treatment status.)

tib_treatedpost =gsynth_out_overall_sub_pol_mc_nnm$D.tr %>% 
  as_tibble() %>%
  mutate(year=row_number()+1999) %>% 
  dplyr::select(year,everything()) %>% 
  pivot_longer(cols=-year) %>% 
  rename(
    state_id = name,
    treatedpost = value) %>% 
  mutate(state_id=as.numeric(state_id))

tib_treatedpost

## # A tibble: 680 × 3
##     year state_id treatedpost
##    <dbl>    <dbl>       <dbl>
##  1  2000        2           0
##  2  2000        4           0
##  3  2000        5           0
##  4  2000        6           0
##  5  2000        8           0
##  6  2000        9           0
##  7  2000       10           0
##  8  2000       15           0
##  9  2000       17           0
## 10  2000       18           0
## # ℹ 670 more rows
…
tib_eff_boot_mc_nnm

## # A tibble: 1,360,000 × 4
##     year state_id boot_rep diff_boot
##    <dbl>    <dbl>    <dbl>     <dbl>
##  1  2000        2        1    -1.07 
##  2  2000        4        1     9.70 
##  3  2000        5        1     3.89 
##  4  2000        6        1     0.654
##  5  2000        8        1     3.89 
##  6  2000        9        1    -6.57 
##  7  2000       10        1    -4.80 
##  8  2000       15        1    -2.65 
##  9  2000       17        1     3.12 
## 10  2000       18        1    -3.37 
## # ℹ 1,359,990 more rows
…
#      As a check, are these the same?
      diff_pt_check=diff_pt_report-diff_pt

  )

tib_mc_nnm

## # A tibble: 680 × 9
##     year state_id treatedpost y_tr_pt y_ct_pt diff_pt_report diff_pt ratio_pt
##    <dbl>    <dbl>       <dbl>   <dbl>   <dbl>          <dbl>   <dbl>    <dbl>
##  1  2000        2           0    155.    158.         -2.85   -2.85     0.982
##  2  2000        4           0    173.    172.          0.925   0.925    1.01 
##  3  2000        5           0    252.    259.         -6.56   -6.56     0.975
##  4  2000        6           0    168.    174.         -6.39   -6.39     0.963
##  5  2000        8           0    130     133.         -2.96   -2.96     0.978
##  6  2000        9           0    158     153.          5.02    5.02     1.03 
##  7  2000       10           0    195.    197.         -1.82   -1.82     0.991
##  8  2000       15           0    185.    177.          8.08    8.08     1.05 
##  9  2000       17           0    208.    206.          1.93    1.93     1.01 
## 10  2000       18           0    214.    212.          2.32    2.32     1.01 
## # ℹ 670 more rows
## # ℹ 1 more variable: diff_pt_check <dbl>
…
Each observation in this dataset of weights is a state-year. The weights add up to 1 over treated state-years.

state_year_wts_overall

## # A tibble: 187 × 4
##    state_id  year pop_tot_all_treated_years prop_of_tot_pop_year
##       <dbl> <dbl>                     <dbl>                <dbl>
##  1        4  2014                 309495338             0.00527 
##  2        5  2014                 309495338             0.00242 
##  3        6  2014                 309495338             0.0315  
##  4        8  2014                 309495338             0.00446 
##  5        9  2014                 309495338             0.00335 
##  6       10  2014                 309495338             0.000817
##  7       15  2014                 309495338             0.00116 
##  8       17  2014                 309495338             0.0110  
##  9       19  2014                 309495338             0.00264 
## 10       20  2014                 309495338             0.00235 
## # ℹ 177 more rows
…
## [1] 309495338

Share of that total contributed by each state

state_year_wts_overall  %>%
  left_join(lookup_state_id_state_abb,by="state_id") %>%
  dplyr::select(state_abb,everything()) %>%
  group_by(state_abb) %>% 
  summarise(prop_of_tot_pop_year=sum(prop_of_tot_pop_year,na.rm=T)) %>% 
  ungroup() %>% 
  arrange(desc(prop_of_tot_pop_year))

## # A tibble: 34 × 2
##    state_abb prop_of_tot_pop_year
##    <chr>                    <dbl>
##  1 CA                      0.191 
##  2 NY                      0.101 
##  3 IL                      0.0648
##  4 OH                      0.0607
##  5 PA                      0.0566
##  6 MI                      0.0528
##  7 NJ                      0.0480
##  8 WA                      0.0365
##  9 MA                      0.0362
## 10 AZ                      0.0327
## # ℹ 24 more rows
…
## [1] 29839638

Share of that total contributed by each treated state

state_year_wts_race_b %>%
  left_join(lookup_state_id_state_abb,by="state_id") %>%
  dplyr::select(state_abb,everything()) %>%
  group_by(state_abb) %>% 
  summarise(prop_of_tot_pop_year=sum(prop_of_tot_pop_year,na.rm=T)) %>% 
  ungroup() %>% 
  arrange(desc(prop_of_tot_pop_year))

## # A tibble: 34 × 2
##    state_abb prop_of_tot_pop_year
##    <chr>                    <dbl>
##  1 NY                      0.158 
##  2 CA                      0.120 
##  3 MD                      0.0959
##  4 IL                      0.0907
##  5 OH                      0.0704
##  6 MI                      0.0672
##  7 NJ                      0.0631
##  8 PA                      0.0573
##  9 LA                      0.0483
## 10 MA                      0.0250
## # ℹ 24 more rows
